%YAML 1.1
%TAG !u! tag:unity3d.com,2011:
--- !u!114 &11400000
MonoBehaviour:
  m_ObjectHideFlags: 0
  m_PrefabParentObject: {fileID: 0}
  m_PrefabInternal: {fileID: 0}
  m_GameObject: {fileID: 0}
  m_Enabled: 1
  m_EditorHideFlags: 0
  m_Script: {fileID: 11500000, guid: b0018912acfe5074f8ed4a760e4fcf7d, type: 3}
  m_Name: Administration
  m_EditorClassIdentifier: 
  AverageHouseSize:
    Distribution: 1
    Min: 8
    Max: 12
    Curve:
      serializedVersion: 2
      m_Curve:
      - serializedVersion: 2
        time: 0
        value: 8
        inSlope: 0
        outSlope: 4
        tangentMode: 0
      - serializedVersion: 2
        time: 1
        value: 12
        inSlope: 4
        outSlope: 0
        tangentMode: 0
      m_PreInfinity: 2
      m_PostInfinity: 2
      m_RotationOrder: 4
  HouseSpacing:
    Distribution: 1
    Min: 1.5
    Max: 2.5
    Curve:
      serializedVersion: 2
      m_Curve:
      - serializedVersion: 2
        time: 0
        value: 1.5
        inSlope: 0
        outSlope: 1
        tangentMode: 0
      - serializedVersion: 2
        time: 1
        value: 2.5
        inSlope: 1
        outSlope: 0
        tangentMode: 0
      m_PreInfinity: 2
      m_PostInfinity: 2
      m_RotationOrder: 4
  houseTypes:
  - {fileID: 11400000, guid: 36f44be79cdbd0d45a270c51e2f42ad0, type: 2}
