%YAML 1.1
%TAG !u! tag:unity3d.com,2011:
--- !u!114 &11400000
MonoBehaviour:
  m_ObjectHideFlags: 0
  m_PrefabParentObject: {fileID: 0}
  m_PrefabInternal: {fileID: 0}
  m_GameObject: {fileID: 0}
  m_Enabled: 1
  m_EditorHideFlags: 0
  m_Script: {fileID: 11500000, guid: 409c0992098378b498affa40667d656c, type: 3}
  m_Name: Town Hall
  m_EditorClassIdentifier: 
  StoryHeight:
    Distribution: 1
    Min: 2.8
    Max: 3.5
    Curve:
      serializedVersion: 2
      m_Curve:
      - serializedVersion: 2
        time: 0
        value: 1.9
        inSlope: 0
        outSlope: 0.30000007
        tangentMode: 0
      - serializedVersion: 2
        time: 1
        value: 2.2
        inSlope: 0.30000007
        outSlope: 0
        tangentMode: 0
      m_PreInfinity: 2
      m_PostInfinity: 2
      m_RotationOrder: 4
  SegmentWidth:
    Distribution: 1
    Min: 1.5
    Max: 2.5
    Curve:
      serializedVersion: 2
      m_Curve:
      - serializedVersion: 2
        time: 0
        value: 1.5
        inSlope: 0
        outSlope: 1
        tangentMode: 0
      - serializedVersion: 2
        time: 1
        value: 2.5
        inSlope: 1
        outSlope: 0
        tangentMode: 0
      m_PreInfinity: 2
      m_PostInfinity: 2
      m_RotationOrder: 4
  FloorsCount:
    Distribution: 1
    Min: 3
    Max: 4
    Curve:
      serializedVersion: 2
      m_Curve:
      - serializedVersion: 2
        time: 0
        value: 1
        inSlope: 0
        outSlope: 1
        tangentMode: 0
      - serializedVersion: 2
        time: 1
        value: 2
        inSlope: 1
        outSlope: 0
        tangentMode: 0
      m_PreInfinity: 2
      m_PostInfinity: 2
      m_RotationOrder: 4
  Door: {fileID: 1000707538290920, guid: 2b9254d2568077f4fbfd43f4b4b4a37a, type: 2}
  Window: {fileID: 1452983837716120, guid: 5c31a137b68585146b373f9857519fe0, type: 2}
  VerticalDivider: {fileID: 1598833326002558, guid: 69f372c0b0286ce4793e4b4502b94d3d,
    type: 2}
  HorizontalDivider: {fileID: 1648929461048108, guid: bfb3705e4dac7be468c3eb5ed57e6af4,
    type: 2}
  TopDivider: {fileID: 1912652622650850, guid: de9fbaf998fbe81478c25c29c5c32b9b, type: 2}
